Analysis of Social Networks Use Among Adults in The US
…
Email usage

We next proceed to estimation of the population parameter on time spent on email weekly

We created a new variable email that combines emailhr and emailmin to reports the number of minutes the respondents spend on email weekly.

gss_email<-gss %>%
  na_if("NA") %>% #making sure R recognises "NA" as missing values
  mutate(email=as.numeric(emailhr)*60+as.numeric(emailmin)) 
#creating variable email to report weakly minutes spent on email

gss_email

## # A tibble: 2,867 x 8
##    emailmin emailhr snapchat instagrm twitter sex    degree         email
##    <chr>    <chr>   <chr>    <chr>    <chr>   <chr>  <chr>          <dbl>
##  1 0        12      <NA>     <NA>     <NA>    Male   Bachelor         720
##  2 30       0       No       No       No      Male   High school       30
##  3 <NA>     <NA>    No       No       No      Male   Bachelor          NA
##  4 10       0       <NA>     <NA>     <NA>    Female High school       10
##  5 <NA>     <NA>    Yes      Yes      No      Female Graduate          NA
##  6 0        2       No       Yes      No      Female Junior college   120
##  7 0        40      <NA>     <NA>     <NA>    Male   High school     2400
##  8 <NA>     <NA>    Yes      Yes      No      Female High school       NA
##  9 0        0       <NA>     <NA>     <NA>    Male   High school        0
## 10 <NA>     <NA>    No       No       No      Male   Junior college    NA
## #  with 2,857 more rows
…
