…
(9) - After we made the test, we need to simulate the test on the null distribution, which is later on saved as null.

null_dist <- yrbss %>%
  specify(weight ~ physical_3plus) %>% #specifying the variable for which mean is 
  #calculated and the variable in which these means are going to differ
  hypothesize(null = "independence") %>% #choosing test for independence as we 
  #are testing whether means are different
  generate(reps = 1000, type = "permute") %>% #permute is used to generate the 
  #null distribution for hypothesis test
  calculate(stat = "diff in means", order = c("yes", "no"))
null_dist

## # A tibble: 1,000 x 2
##    replicate    stat
##        <int>   <dbl>
##  1         1 -0.0251
##  2         2 -0.642 
##  3         3 -0.636 
##  4         4  0.296 
##  5         5  0.285 
##  6         6  0.284 
##  7         7 -0.334 
##  8         8  0.194 
##  9         9 -0.0575
## 10        10  0.455 
## # … with 990 more rows
…
